…
    ## Rows: 56136 Columns: 14
    ## ── Column specification ────────────────────────────────────────────────────────
    ## Delimiter: ","
    ## dbl (14): questid2, age2, mr30est, catag6, newrace2, irmjage, mjrec, mrjmon,...
    ## 
    ## ℹ Use `spec()` to retrieve the full column specification for this data.
    ## ℹ Specify the column types or set `show_col_types = FALSE` to quiet this message.

``` r
info_scatter
```

    ## # A tibble: 56,136 × 14
    ##    quest…¹  age2 mr30est catag6 newra…² irmjage mjrec mrjmon ymdelt amdelt irsex
    ##      <dbl> <dbl>   <dbl>  <dbl>   <dbl>   <dbl> <dbl>  <dbl>  <dbl>  <dbl> <dbl>
    ##  1  4.33e7    15      93      4       1      21     3      0     NA      1     1
    ##  2  6.51e7    17      91      6       5     991    91      0     NA      2     2
    ##  3  4.94e7    14      93      3       1      20     3      0     NA      2     1
    ##  4  5.10e7     9      91      2       1     991    91      0     NA      2     2
    ##  5  3.18e7     7      91      2       1     991    91      0     NA      2     1
    ##  6  8.70e7    16      99      5       2      14     1      1     NA      1     1
    ##  7  6.56e7     8      93      2       1      17     2      0     NA      2     2
    ##  8  4.54e7    17      91      6       1     991    91      0     NA      2     1
    ##  9  1.52e7    14      91      3       5     991    91      0     NA      2     2
    ## 10  7.60e7    15      91      4       2     991    91      0     NA      2     2
    ## # … with 56,126 more rows, 3 more variables: eduhighcat <dbl>, income <dbl>,
    ## #   irmarit <dbl>, and abbreviated variable names ¹​questid2, ²​newrace2
…
