mapping
…
legal_state = legal_state %>% 
  rename(full = State)

legal_state = legal_state %>%
  mutate(status = case_when(
    Recreational == "Yes" & Medical == "Yes" ~ "Recreational/Medical", #rec/med
    Recreational == "No" & Medical == "Yes" ~ "Medical", #medical legal
    Recreational == "No" & Medical == "No" ~ "None"#none
  )) 

legal_state

## # A tibble: 51 × 6
##    full       Recreational Year_legalized_REC Medical Year_legalized_MED status 
##    <chr>      <chr>                     <dbl> <chr>                <dbl> <chr>  
##  1 California Yes                        2016 Yes                   1996 Recrea…
##  2 Alaska     Yes                        2014 Yes                   1998 Recrea…
##  3 Nevada     Yes                        2016 Yes                   1998 Recrea…
##  4 Oregon     Yes                        2014 Yes                   1998 Recrea…
##  5 Washington Yes                        2012 Yes                   1998 Recrea…
##  6 Maine      Yes                        2016 Yes                   1999 Recrea…
##  7 Colorado   Yes                        2012 Yes                   2000 Recrea…
##  8 Hawaii     No                           NA Yes                   2000 Medical
##  9 Montana    Yes                        2020 Yes                   2004 Recrea…
## 10 Vermont    Yes                        2020 Yes                   2004 Recrea…
## # … with 41 more rows
…
